Tue Apr  3 16:59:29 EDT 2018
Validate Tumor Test: Total 65 Found 57 frac found 0.876923
Validate Normal Test: Total 93 Found 11 Frac found 0.11828
Validate Tumor All: Total 274 Found 266 frac found 0.970803
Validate Normal All: Total 333 Found 11 Frac found 0.033033
Validate Tumor Training: Total 209 Found 209 frac found 1
Validate Normal Training: Total 240 Found  Frac found 0
F-measure 1
