Mon Apr 16 23:50:10 EDT 2018
Validate Tumor Test: Total 91 Found 75 frac found 0.824176
Validate Normal Test: Total 86 Found 17 Frac found 0.197674
Validate Tumor All: Total 409 Found 393 frac found 0.96088
Validate Normal All: Total 333 Found 20 Frac found 0.0600601
Validate Tumor Training: Total 318 Found 318 frac found 1
Validate Normal Training: Total 247 Found 3 Frac found 0.0121457
F-measure 0.995305
