Validating, ../result/ACC2HIT/LGG/LGG-combinations, against Tumor All samples, /home/sajal/data//maf2dat-moderate/LGG.maf2dat.matrix.out
Num genes = 17770 samples = 479 
Num combinations = 10
    2 combs for sample     0
    1 combs for sample     1
    2 combs for sample     2
    2 combs for sample     3
    5 combs for sample     4
    2 combs for sample     5
    2 combs for sample     6
    3 combs for sample     7
    2 combs for sample     8
    1 combs for sample     9
    2 combs for sample    10
    3 combs for sample    11
    2 combs for sample    12
    1 combs for sample    13
    1 combs for sample    14
    1 combs for sample    15
    1 combs for sample    16
    2 combs for sample    17
    2 combs for sample    18
    2 combs for sample    19
    1 combs for sample    20
    1 combs for sample    21
    2 combs for sample    22
    2 combs for sample    23
    3 combs for sample    24
    3 combs for sample    25
    2 combs for sample    26
    2 combs for sample    27
    1 combs for sample    28
    4 combs for sample    29
    1 combs for sample    30
    4 combs for sample    31
    1 combs for sample    32
    3 combs for sample    33
    2 combs for sample    34
    2 combs for sample    35
    1 combs for sample    36
    1 combs for sample    37
    1 combs for sample    38
    2 combs for sample    39
    1 combs for sample    40
    3 combs for sample    41
    1 combs for sample    42
    2 combs for sample    43
    4 combs for sample    44
    2 combs for sample    45
    2 combs for sample    46
    1 combs for sample    47
    3 combs for sample    48
    2 combs for sample    49
    1 combs for sample    50
    2 combs for sample    51
    1 combs for sample    52
    2 combs for sample    53
    1 combs for sample    54
    1 combs for sample    55
    3 combs for sample    56
    3 combs for sample    57
    1 combs for sample    58
    3 combs for sample    59
    2 combs for sample    60
    2 combs for sample    61
    2 combs for sample    62
    1 combs for sample    63
    2 combs for sample    64
    2 combs for sample    65
    1 combs for sample    66
    2 combs for sample    67
    2 combs for sample    68
    0 combs for sample    69
    2 combs for sample    70
    1 combs for sample    71
    1 combs for sample    72
    2 combs for sample    73
    1 combs for sample    74
    2 combs for sample    75
    1 combs for sample    76
    3 combs for sample    77
    1 combs for sample    78
    3 combs for sample    79
    2 combs for sample    80
    2 combs for sample    81
    2 combs for sample    82
    2 combs for sample    83
    3 combs for sample    84
    2 combs for sample    85
    1 combs for sample    86
    2 combs for sample    87
    1 combs for sample    88
    2 combs for sample    89
    3 combs for sample    90
    2 combs for sample    91
    1 combs for sample    92
    2 combs for sample    93
    3 combs for sample    94
    3 combs for sample    95
    2 combs for sample    96
    1 combs for sample    97
    3 combs for sample    98
    3 combs for sample    99
    1 combs for sample   100
    1 combs for sample   101
    1 combs for sample   102
    1 combs for sample   103
    3 combs for sample   104
    1 combs for sample   105
    1 combs for sample   106
    4 combs for sample   107
    2 combs for sample   108
    1 combs for sample   109
    2 combs for sample   110
    1 combs for sample   111
    2 combs for sample   112
    2 combs for sample   113
    4 combs for sample   114
    3 combs for sample   115
    1 combs for sample   116
    1 combs for sample   117
    2 combs for sample   118
    1 combs for sample   119
    1 combs for sample   120
    2 combs for sample   121
    3 combs for sample   122
    2 combs for sample   123
    2 combs for sample   124
    3 combs for sample   125
    1 combs for sample   126
    3 combs for sample   127
    1 combs for sample   128
    2 combs for sample   129
    1 combs for sample   130
    2 combs for sample   131
    2 combs for sample   132
    3 combs for sample   133
    2 combs for sample   134
    1 combs for sample   135
    3 combs for sample   136
    1 combs for sample   137
    1 combs for sample   138
    1 combs for sample   139
    2 combs for sample   140
    2 combs for sample   141
    2 combs for sample   142
    1 combs for sample   143
    1 combs for sample   144
    1 combs for sample   145
    2 combs for sample   146
    2 combs for sample   147
    0 combs for sample   148
    2 combs for sample   149
    1 combs for sample   150
    2 combs for sample   151
    2 combs for sample   152
    2 combs for sample   153
    2 combs for sample   154
    1 combs for sample   155
    1 combs for sample   156
    3 combs for sample   157
    0 combs for sample   158
    1 combs for sample   159
    1 combs for sample   160
    2 combs for sample   161
    4 combs for sample   162
    2 combs for sample   163
    3 combs for sample   164
    2 combs for sample   165
    2 combs for sample   166
    3 combs for sample   167
    2 combs for sample   168
    1 combs for sample   169
    1 combs for sample   170
    2 combs for sample   171
    2 combs for sample   172
    1 combs for sample   173
    1 combs for sample   174
    3 combs for sample   175
    0 combs for sample   176
    1 combs for sample   177
    1 combs for sample   178
    1 combs for sample   179
    2 combs for sample   180
    2 combs for sample   181
    3 combs for sample   182
    2 combs for sample   183
    1 combs for sample   184
    2 combs for sample   185
    2 combs for sample   186
    2 combs for sample   187
    2 combs for sample   188
    2 combs for sample   189
    1 combs for sample   190
    0 combs for sample   191
    2 combs for sample   192
    2 combs for sample   193
    2 combs for sample   194
    3 combs for sample   195
    4 combs for sample   196
    2 combs for sample   197
    1 combs for sample   198
    3 combs for sample   199
    3 combs for sample   200
    4 combs for sample   201
    1 combs for sample   202
    1 combs for sample   203
    2 combs for sample   204
    3 combs for sample   205
    2 combs for sample   206
    2 combs for sample   207
    1 combs for sample   208
    0 combs for sample   209
    2 combs for sample   210
    4 combs for sample   211
    3 combs for sample   212
    2 combs for sample   213
    2 combs for sample   214
    3 combs for sample   215
    1 combs for sample   216
    1 combs for sample   217
    3 combs for sample   218
    4 combs for sample   219
    1 combs for sample   220
    1 combs for sample   221
    2 combs for sample   222
    2 combs for sample   223
    3 combs for sample   224
    1 combs for sample   225
    1 combs for sample   226
    2 combs for sample   227
    1 combs for sample   228
    2 combs for sample   229
    4 combs for sample   230
    1 combs for sample   231
    3 combs for sample   232
    2 combs for sample   233
    2 combs for sample   234
    2 combs for sample   235
    1 combs for sample   236
    3 combs for sample   237
    3 combs for sample   238
    2 combs for sample   239
    2 combs for sample   240
    2 combs for sample   241
    1 combs for sample   242
    0 combs for sample   243
    1 combs for sample   244
    2 combs for sample   245
    2 combs for sample   246
    1 combs for sample   247
    1 combs for sample   248
    2 combs for sample   249
    1 combs for sample   250
    1 combs for sample   251
    1 combs for sample   252
    3 combs for sample   253
    0 combs for sample   254
    3 combs for sample   255
    1 combs for sample   256
    1 combs for sample   257
    1 combs for sample   258
    2 combs for sample   259
    2 combs for sample   260
    4 combs for sample   261
    2 combs for sample   262
    2 combs for sample   263
    2 combs for sample   264
    2 combs for sample   265
    2 combs for sample   266
    2 combs for sample   267
    3 combs for sample   268
    2 combs for sample   269
    3 combs for sample   270
    2 combs for sample   271
    3 combs for sample   272
    2 combs for sample   273
    2 combs for sample   274
    1 combs for sample   275
    1 combs for sample   276
    1 combs for sample   277
    1 combs for sample   278
    3 combs for sample   279
    3 combs for sample   280
    2 combs for sample   281
    4 combs for sample   282
    2 combs for sample   283
    1 combs for sample   284
    1 combs for sample   285
    4 combs for sample   286
    1 combs for sample   287
    2 combs for sample   288
    2 combs for sample   289
    1 combs for sample   290
    1 combs for sample   291
    4 combs for sample   292
    1 combs for sample   293
    1 combs for sample   294
    3 combs for sample   295
    1 combs for sample   296
    1 combs for sample   297
    3 combs for sample   298
    2 combs for sample   299
    1 combs for sample   300
    2 combs for sample   301
    2 combs for sample   302
    2 combs for sample   303
    2 combs for sample   304
    1 combs for sample   305
    3 combs for sample   306
    1 combs for sample   307
    1 combs for sample   308
    3 combs for sample   309
    4 combs for sample   310
    3 combs for sample   311
    3 combs for sample   312
    3 combs for sample   313
    1 combs for sample   314
    3 combs for sample   315
    4 combs for sample   316
    2 combs for sample   317
    3 combs for sample   318
    1 combs for sample   319
    0 combs for sample   320
    2 combs for sample   321
    1 combs for sample   322
    1 combs for sample   323
    3 combs for sample   324
    2 combs for sample   325
    1 combs for sample   326
    3 combs for sample   327
    0 combs for sample   328
    4 combs for sample   329
    2 combs for sample   330
    1 combs for sample   331
    3 combs for sample   332
    2 combs for sample   333
    2 combs for sample   334
    2 combs for sample   335
    1 combs for sample   336
    3 combs for sample   337
    2 combs for sample   338
    5 combs for sample   339
    2 combs for sample   340
    3 combs for sample   341
    1 combs for sample   342
    2 combs for sample   343
    3 combs for sample   344
    1 combs for sample   345
    2 combs for sample   346
    4 combs for sample   347
    1 combs for sample   348
    3 combs for sample   349
    2 combs for sample   350
    2 combs for sample   351
    4 combs for sample   352
    4 combs for sample   353
    2 combs for sample   354
    3 combs for sample   355
    1 combs for sample   356
    2 combs for sample   357
    3 combs for sample   358
    2 combs for sample   359
    2 combs for sample   360
    2 combs for sample   361
    3 combs for sample   362
    3 combs for sample   363
    1 combs for sample   364
    2 combs for sample   365
    1 combs for sample   366
    2 combs for sample   367
    4 combs for sample   368
    2 combs for sample   369
    2 combs for sample   370
    2 combs for sample   371
    1 combs for sample   372
    1 combs for sample   373
    1 combs for sample   374
    3 combs for sample   375
    1 combs for sample   376
    2 combs for sample   377
    2 combs for sample   378
    3 combs for sample   379
    1 combs for sample   380
    2 combs for sample   381
    1 combs for sample   382
    1 combs for sample   383
    2 combs for sample   384
    2 combs for sample   385
    3 combs for sample   386
    2 combs for sample   387
    2 combs for sample   388
    1 combs for sample   389
    2 combs for sample   390
    3 combs for sample   391
    1 combs for sample   392
    2 combs for sample   393
    1 combs for sample   394
    1 combs for sample   395
    1 combs for sample   396
    3 combs for sample   397
    2 combs for sample   398
    1 combs for sample   399
    1 combs for sample   400
    1 combs for sample   401
    3 combs for sample   402
    2 combs for sample   403
    2 combs for sample   404
    2 combs for sample   405
    2 combs for sample   406
    1 combs for sample   407
    2 combs for sample   408
    3 combs for sample   409
    3 combs for sample   410
    2 combs for sample   411
    1 combs for sample   412
    1 combs for sample   413
    1 combs for sample   414
    1 combs for sample   415
    5 combs for sample   416
    3 combs for sample   417
    2 combs for sample   418
    2 combs for sample   419
    1 combs for sample   420
    3 combs for sample   421
    4 combs for sample   422
    2 combs for sample   423
    0 combs for sample   424
    1 combs for sample   425
    2 combs for sample   426
    2 combs for sample   427
    2 combs for sample   428
    2 combs for sample   429
    2 combs for sample   430
    3 combs for sample   431
    3 combs for sample   432
    2 combs for sample   433
    1 combs for sample   434
    2 combs for sample   435
    1 combs for sample   436
    1 combs for sample   437
    2 combs for sample   438
    1 combs for sample   439
    1 combs for sample   440
    1 combs for sample   441
    2 combs for sample   442
    1 combs for sample   443
    2 combs for sample   444
    2 combs for sample   445
    1 combs for sample   446
    2 combs for sample   447
    1 combs for sample   448
    2 combs for sample   449
    1 combs for sample   450
    2 combs for sample   451
    1 combs for sample   452
    2 combs for sample   453
    1 combs for sample   454
    1 combs for sample   455
    2 combs for sample   456
    1 combs for sample   457
    1 combs for sample   458
    3 combs for sample   459
    3 combs for sample   460
    1 combs for sample   461
    0 combs for sample   462
    2 combs for sample   463
    2 combs for sample   464
    2 combs for sample   465
    3 combs for sample   466
    2 combs for sample   467
    4 combs for sample   468
    1 combs for sample   469
    1 combs for sample   470
    2 combs for sample   471
    3 combs for sample   472
    2 combs for sample   473
    1 combs for sample   474
    3 combs for sample   475
    2 combs for sample   476
    2 combs for sample   477
    3 combs for sample   478
Percent found 0.974948 
