Gene stable ID	Gene stable ID version	Chromosome/scaffold name	Gene start (bp)	Gene end (bp)	Gene name
ENSG00000000971	ENSG00000000971.15	1	196651878	196747504	CFH
ENSG00000004455	ENSG00000004455.16	1	33007940	33080996	AK2
ENSG00000004866	ENSG00000004866.20	7	116953238	117230103	ST7
ENSG00000006377	ENSG00000006377.10	7	97005548	97011039	DLX6
ENSG00000007923	ENSG00000007923.15	1	6634168	6701924	DNAJC11
ENSG00000008988	ENSG00000008988.9	8	56067295	56074581	RPS20
ENSG00000010438	ENSG00000010438.16	9	33750466	33799231	PRSS3
ENSG00000021645	ENSG00000021645.18	14	78170373	79868290	NRXN3
ENSG00000038358	ENSG00000038358.14	16	67873023	67884503	EDC4
ENSG00000039068	ENSG00000039068.18	16	68737225	68835548	CDH1
ENSG00000043355	ENSG00000043355.11	13	99981772	99986773	ZIC2
ENSG00000050438	ENSG00000050438.16	12	51391317	51515763	SLC4A8
ENSG00000055609	ENSG00000055609.17	7	152134922	152436005	KMT2C
ENSG00000063169	ENSG00000063169.10	19	47608196	47703277	BICRA
ENSG00000065526	ENSG00000065526.10	1	15847864	15940460	SPEN
ENSG00000065534	ENSG00000065534.18	3	123610049	123884331	MYLK
ENSG00000070413	ENSG00000070413.19	22	19036282	19122454	DGCR2
ENSG00000071626	ENSG00000071626.16	19	1407569	1435687	DAZAP1
ENSG00000077782	ENSG00000077782.19	8	38411138	38468834	FGFR1
ENSG00000079841	ENSG00000079841.18	6	71886703	72403143	RIMS1
ENSG00000080031	ENSG00000080031.9	19	55181248	55209506	PTPRH
ENSG00000081842	ENSG00000081842.17	5	140827958	141012344	PCDHA6
ENSG00000084731	ENSG00000084731.14	2	25926596	25982749	KIF3C
ENSG00000089041	ENSG00000089041.16	12	121132819	121188032	P2RX7
ENSG00000090512	ENSG00000090512.11	3	186635969	186653141	FETUB
ENSG00000099889	ENSG00000099889.13	22	19969896	20016808	ARVCF
ENSG00000099917	ENSG00000099917.17	22	20495913	20587632	MED15
ENSG00000099957	ENSG00000099957.16	22	21009808	21028830	P2RX6
ENSG00000100151	ENSG00000100151.15	22	38056311	38075701	PICK1
ENSG00000100290	ENSG00000100290.2	22	43110748	43129712	BIK
ENSG00000100401	ENSG00000100401.19	22	41245611	41286251	RANGAP1
ENSG00000100626	ENSG00000100626.16	14	69259277	69357033	GALNT16
ENSG00000102890	ENSG00000102890.14	16	67199111	67204029	ELMO3
ENSG00000104974	ENSG00000104974.11	19	54593582	54602090	LILRA1
ENSG00000108840	ENSG00000108840.15	17	44076746	44123702	HDAC5
ENSG00000109758	ENSG00000109758.8	4	3441887	3449495	HGFAC
ENSG00000110046	ENSG00000110046.12	11	64894546	64917248	ATG2A
ENSG00000110074	ENSG00000110074.10	11	126269055	126278131	FOXRED1
ENSG00000112559	ENSG00000112559.13	6	41636882	41654246	MDFI
ENSG00000112984	ENSG00000112984.11	5	138178719	138187715	KIF20A
ENSG00000113649	ENSG00000113649.11	5	146447311	146511961	TCERG1
ENSG00000116044	ENSG00000116044.15	2	177227595	177392697	NFE2L2
ENSG00000116147	ENSG00000116147.16	1	175315194	175743770	TNR
ENSG00000116251	ENSG00000116251.9	1	6181269	6209389	RPL22
ENSG00000116350	ENSG00000116350.16	1	29147743	29181987	SRSF4
ENSG00000116721	ENSG00000116721.9	1	12791397	12796628	PRAMEF1
ENSG00000117148	ENSG00000117148.7	1	17755313	17827063	ACTL8
ENSG00000118046	ENSG00000118046.14	19	1177558	1228435	STK11
ENSG00000118777	ENSG00000118777.11	4	88090264	88231322	ABCG2
ENSG00000119720	ENSG00000119720.17	14	90267856	90332137	NRDE2
ENSG00000120314	ENSG00000120314.18	5	140664676	140674124	WDR55
ENSG00000120963	ENSG00000120963.11	8	101177878	101206193	ZNF706
ENSG00000121067	ENSG00000121067.17	17	49598884	49678234	SPOP
ENSG00000121898	ENSG00000121898.12	10	123706207	123940267	CPXM2
ENSG00000122257	ENSG00000122257.19	16	24537693	24572863	RBBP6
ENSG00000124092	ENSG00000124092.12	20	57495966	57525652	CTCFL
ENSG00000124466	ENSG00000124466.8	19	43460787	43465660	LYPD3
ENSG00000124762	ENSG00000124762.13	6	36676460	36687339	CDKN1A
ENSG00000125498	ENSG00000125498.19	19	54769811	54784322	KIR2DL1
ENSG00000125810	ENSG00000125810.9	20	23079349	23086340	CD93
ENSG00000126262	ENSG00000126262.4	19	35443907	35451767	FFAR2
ENSG00000127481	ENSG00000127481.14	1	19074506	19210276	UBR4
ENSG00000127507	ENSG00000127507.17	19	14732393	14778541	ADGRE2
ENSG00000130226	ENSG00000130226.16	7	153887097	154894285	DPP6
ENSG00000130244	ENSG00000130244.12	19	38403135	38409088	FAM98C
ENSG00000130558	ENSG00000130558.19	9	135075422	135121179	OLFM1
ENSG00000131203	ENSG00000131203.12	8	39902275	39928444	IDO1
ENSG00000131951	ENSG00000131951.11	14	59919713	60063559	LRRC9
ENSG00000133056	ENSG00000133056.13	1	204422628	204494724	PIK3C2B
ENSG00000133112	ENSG00000133112.16	13	45333471	45341370	TPT1
ENSG00000133193	ENSG00000133193.12	17	73207353	73236753	FAM104A
ENSG00000133703	ENSG00000133703.11	12	25204789	25250936	KRAS
ENSG00000133863	ENSG00000133863.8	8	30831544	30913003	TEX15
ENSG00000134184	ENSG00000134184.12	1	109687814	109709039	GSTM1
ENSG00000134545	ENSG00000134545.13	12	10442264	10454685	KLRC1
ENSG00000134775	ENSG00000134775.15	18	36297714	36780055	FHOD3
ENSG00000134982	ENSG00000134982.16	5	112707498	112846239	APC
ENSG00000135341	ENSG00000135341.17	6	90513573	90587045	MAP3K7
ENSG00000137210	ENSG00000137210.13	6	10747759	10852753	TMEM14B
ENSG00000137337	ENSG00000137337.14	6	30699807	30717889	MDC1
ENSG00000137492	ENSG00000137492.7	11	76349956	76380971	THAP12
ENSG00000138413	ENSG00000138413.13	2	208236227	208266074	IDH1
ENSG00000139687	ENSG00000139687.14	13	48303726	48599436	RB1
ENSG00000139910	ENSG00000139910.19	14	26443093	26597754	NOVA1
ENSG00000140323	ENSG00000140323.5	15	40358235	40378639	DISP2
ENSG00000140795	ENSG00000140795.12	16	46703369	46790407	MYLK3
ENSG00000141298	ENSG00000141298.17	17	29625938	29930276	SSH2
ENSG00000141510	ENSG00000141510.16	17	7661779	7687550	TP53
ENSG00000142546	ENSG00000142546.13	19	49555711	49590262	NOSIP
ENSG00000142798	ENSG00000142798.18	1	21822245	21937297	HSPG2
ENSG00000143226	ENSG00000143226.13	1	161505430	161524013	FCGR2A
ENSG00000143882	ENSG00000143882.10	2	10721649	10785110	ATP6V1C2
ENSG00000144381	ENSG00000144381.16	2	197486581	197516737	HSPD1
ENSG00000144791	ENSG00000144791.9	3	45555394	45686338	LIMD1
ENSG00000145506	ENSG00000145506.13	5	1008829	1038943	NKD2
ENSG00000145920	ENSG00000145920.14	5	175796310	175884020	CPLX2
ENSG00000146112	ENSG00000146112.11	6	30676389	30687895	PPP1R18
ENSG00000146555	ENSG00000146555.18	7	3301448	4269000	SDK1
ENSG00000146648	ENSG00000146648.17	7	55019021	55211628	EGFR
ENSG00000146830	ENSG00000146830.10	7	100679507	100694037	GIGYF1
ENSG00000147050	ENSG00000147050.14	X	44873177	45112602	KDM6A
ENSG00000147234	ENSG00000147234.10	X	107522450	107605251	FRMPD3
ENSG00000149531	ENSG00000149531.15	20	30377372	30399257	FRG1BP
ENSG00000152086	ENSG00000152086.8	2	130191743	130198461	TUBA3E
ENSG00000152661	ENSG00000152661.7	6	121435692	121449727	GJA1
ENSG00000153201	ENSG00000153201.15	2	108719481	108785811	RANBP2
ENSG00000153391	ENSG00000153391.15	18	35452230	35497991	INO80C
ENSG00000153815	ENSG00000153815.16	16	81445170	81711762	CMIP
ENSG00000153820	ENSG00000153820.12	2	227979950	228181645	SPHKAP
ENSG00000153933	ENSG00000153933.9	17	56834099	56869567	DGKE
ENSG00000154175	ENSG00000154175.16	3	100749156	100993515	ABI3BP
ENSG00000154222	ENSG00000154222.14	1	52345723	52366193	CC2D1B
ENSG00000154330	ENSG00000154330.12	9	68328308	68531061	PGM5
ENSG00000154358	ENSG00000154358.20	1	228208130	228378874	OBSCN
ENSG00000155034	ENSG00000155034.18	7	5431335	5513798	FBXL18
ENSG00000155657	ENSG00000155657.26	2	178525989	178830802	TTN
ENSG00000156650	ENSG00000156650.12	10	74825582	75032622	KAT6B
ENSG00000157423	ENSG00000157423.17	16	70807378	71230722	HYDIN
ENSG00000157764	ENSG00000157764.13	7	140719327	140924928	BRAF
ENSG00000158290	ENSG00000158290.16	X	120524609	120575794	CUL4B
ENSG00000158445	ENSG00000158445.9	20	49293394	49484297	KCNB1
ENSG00000158488	ENSG00000158488.15	1	158353696	158357553	CD1E
ENSG00000158865	ENSG00000158865.12	16	24845841	24911628	SLC5A11
ENSG00000159409	ENSG00000159409.14	1	151702404	151716814	CELF3
ENSG00000159625	ENSG00000159625.14	16	57694793	57731805	DRC7
ENSG00000159650	ENSG00000159650.8	3	126481281	126517773	UROC1
ENSG00000161031	ENSG00000161031.12	19	15468645	15498956	PGLYRP2
ENSG00000161905	ENSG00000161905.12	17	4630902	4642294	ALOX15
ENSG00000162009	ENSG00000162009.8	16	1078781	1080142	SSTR5
ENSG00000162620	ENSG00000162620.15	1	74026015	74198187	LRRIQ3
ENSG00000162927	ENSG00000162927.13	2	60940222	61018259	PUS10
ENSG00000163283	ENSG00000163283.6	2	232378534	232382889	ALPP
ENSG00000163435	ENSG00000163435.15	1	202007945	202017188	ELF3
ENSG00000163629	ENSG00000163629.12	4	86594315	86815171	PTPN13
ENSG00000163959	ENSG00000163959.9	3	196211487	196243178	SLC51A
ENSG00000165370	ENSG00000165370.1	X	137030148	137031674	GPR101
ENSG00000166272	ENSG00000166272.16	10	102743970	102816267	WBP1L
ENSG00000166343	ENSG00000166343.9	10	73423579	73433561	MSS51
ENSG00000166736	ENSG00000166736.11	11	113974881	113990313	HTR3A
ENSG00000167395	ENSG00000167395.10	16	31074422	31084196	ZNF646
ENSG00000167548	ENSG00000167548.14	12	49018975	49059774	KMT2D
ENSG00000167822	ENSG00000167822.2	11	56134721	56140201	OR8J3
ENSG00000168096	ENSG00000168096.14	16	4696510	4734378	ANKS3
ENSG00000168702	ENSG00000168702.17	2	140231423	142131701	LRP1B
ENSG00000169047	ENSG00000169047.5	2	226731317	226799759	IRS1
ENSG00000169174	ENSG00000169174.10	1	55039548	55064852	PCSK9
ENSG00000169862	ENSG00000169862.18	5	10971840	11904043	CTNND2
ENSG00000170369	ENSG00000170369.3	20	23823769	23826731	CST2
ENSG00000170382	ENSG00000170382.11	1	204617170	204685733	LRRN2
ENSG00000170471	ENSG00000170471.14	20	38472816	38578861	RALGAPB
ENSG00000170959	ENSG00000170959.14	11	30830369	31369810	DCDC1
ENSG00000171368	ENSG00000171368.11	5	659862	693395	TPPP
ENSG00000171502	ENSG00000171502.14	1	85729233	86156943	COL24A1
ENSG00000171680	ENSG00000171680.21	1	6466092	6520061	PLEKHG5
ENSG00000171862	ENSG00000171862.10	10	87863113	87971930	PTEN
ENSG00000171936	ENSG00000171936.2	19	15737985	15742343	OR10H3
ENSG00000172199	ENSG00000172199.1	11	56375624	56376553	OR8U1
ENSG00000172765	ENSG00000172765.16	3	129647792	129893576	TMCC1
ENSG00000173213	ENSG00000173213.9	18	47390	49557	TUBB8P12
ENSG00000173531	ENSG00000173531.15	3	49683947	49689501	MST1
ENSG00000173662	ENSG00000173662.20	1	6555181	6579757	TAS1R1
ENSG00000173826	ENSG00000173826.14	17	63523334	63548977	KCNH6
ENSG00000174501	ENSG00000174501.14	2	95836919	95991831	ANKRD36C
ENSG00000175193	ENSG00000175193.13	3	183829271	183884933	PARL
ENSG00000175216	ENSG00000175216.14	11	46743048	46846308	CKAP5
ENSG00000176302	ENSG00000176302.12	11	118971707	118981291	FOXR1
ENSG00000176542	ENSG00000176542.9	3	113648385	113696646	USF3
ENSG00000177212	ENSG00000177212.4	1	248269917	248277976	OR2T33
ENSG00000177468	ENSG00000177468.6	6	137492202	137494250	OLIG3
ENSG00000177548	ENSG00000177548.12	16	28904421	28936526	RABEP2
ENSG00000177731	ENSG00000177731.15	17	18244836	18258916	FLII
ENSG00000178104	ENSG00000178104.19	1	148808181	149048286	PDE4DIP
ENSG00000178188	ENSG00000178188.14	16	28846600	28874212	SH2B1
ENSG00000178199	ENSG00000178199.13	6	149446795	149485061	ZC3H12D
ENSG00000179588	ENSG00000179588.8	16	88453317	88537016	ZFPM1
ENSG00000179593	ENSG00000179593.15	17	8039017	8049134	ALOX15B
ENSG00000179603	ENSG00000179603.17	7	126438598	127253294	GRM8
ENSG00000179912	ENSG00000179912.20	12	57253762	57431005	R3HDM2
ENSG00000180104	ENSG00000180104.15	5	443158	471937	EXOC3
ENSG00000180329	ENSG00000180329.13	17	44673069	44689779	CCDC43
ENSG00000180767	ENSG00000180767.9	3	126524283	126543291	CHST13
ENSG00000181396	ENSG00000181396.12	17	82389223	82418637	OGFOD3
ENSG00000184634	ENSG00000184634.15	X	71118556	71142454	MED12
ENSG00000184677	ENSG00000184677.16	1	22451851	22531157	ZBTB40
ENSG00000184814	ENSG00000184814.5	3	139019031	139020926	PRR23B
ENSG00000184956	ENSG00000184956.15	11	1012821	1036706	MUC6
ENSG00000185177	ENSG00000185177.12	7	57119614	57139864	ZNF479
ENSG00000185519	ENSG00000185519.8	1	16057769	16073632	FAM131C
ENSG00000185567	ENSG00000185567.6	14	104937244	104978357	AHNAK2
ENSG00000185640	ENSG00000185640.5	12	52821410	52834295	KRT79
ENSG00000186395	ENSG00000186395.7	17	40818117	40822595	KRT10
ENSG00000186409	ENSG00000186409.15	1	42463330	42654664	CCDC30
ENSG00000186818	ENSG00000186818.12	19	54643889	54670359	LILRB4
ENSG00000186844	ENSG00000186844.5	1	152827473	152827894	LCE1A
ENSG00000187537	ENSG00000187537.13	14	19402486	19434341	POTEG
ENSG00000187545	ENSG00000187545.5	1	12892896	12898270	PRAMEF10
ENSG00000187741	ENSG00000187741.14	16	89737549	89816657	FANCA
ENSG00000188162	ENSG00000188162.10	11	17547373	17647150	OTOG
ENSG00000188766	ENSG00000188766.12	19	38388421	38399587	SPRED3
ENSG00000196126	ENSG00000196126.11	6	32578769	32589848	HLA-DRB1
ENSG00000196187	ENSG00000196187.11	1	225845536	225882369	TMEM63A
ENSG00000196460	ENSG00000196460.13	2	101397361	101474703	RFX8
ENSG00000196498	ENSG00000196498.13	12	124324415	124567589	NCOR2
ENSG00000196539	ENSG00000196539.3	1	248473351	248474307	OR2T3
ENSG00000197245	ENSG00000197245.5	1	26159020	26163962	FAM110D
ENSG00000197429	ENSG00000197429.10	1	45694324	45750650	IPP
ENSG00000197595	ENSG00000197595.4	13	112647044	112684497	ATP11AUN
ENSG00000197841	ENSG00000197841.14	19	34734155	34745378	ZNF181
ENSG00000197887	ENSG00000197887.4	11	58203202	58204181	OR1S2
ENSG00000197915	ENSG00000197915.5	1	152212082	152224193	HRNR
ENSG00000197978	ENSG00000197978.9	15	82430018	82439153	GOLGA6L9
ENSG00000198128	ENSG00000198128.4	1	248046836	248063407	OR2L3
ENSG00000198216	ENSG00000198216.11	1	181317690	181808084	CACNA1E
ENSG00000198502	ENSG00000198502.5	6	32517343	32530287	HLA-DRB5
ENSG00000198601	ENSG00000198601.3	1	248174821	248181067	OR2M2
ENSG00000198786	ENSG00000198786.2	MT	12337	14148	MT-ND5
ENSG00000198793	ENSG00000198793.12	1	11106535	11262507	MTOR
ENSG00000198888	ENSG00000198888.2	MT	3307	4262	MT-ND1
ENSG00000198929	ENSG00000198929.12	1	162069774	162370475	NOS1AP
ENSG00000203933	ENSG00000203933.2	X	139955725	139965520	CXorf66
ENSG00000204130	ENSG00000204130.13	10	68341107	68407294	RUFY2
ENSG00000204310	ENSG00000204310.12	6	32168212	32178096	AGPAT1
ENSG00000204442	ENSG00000204442.3	13	107163510	107866735	FAM155A
ENSG00000204479	ENSG00000204479.4	1	13389632	13392629	PRAMEF17
ENSG00000204501	ENSG00000204501.7	1	13315581	13322598	PRAMEF15
ENSG00000204516	ENSG00000204516.9	6	31494881	31511124	MICB
ENSG00000204525	ENSG00000204525.16	6	31268749	31272130	HLA-C
ENSG00000204661	ENSG00000204661.9	5	179641544	179645046	C5orf60
ENSG00000205277	ENSG00000205277.9	7	100969623	101018949	MUC12
ENSG00000205356	ENSG00000205356.9	7	98214624	98252251	TECPR1
ENSG00000205445	ENSG00000205445.3	21	44550357	44551505	KRTAP10-2
ENSG00000205869	ENSG00000205869.2	11	1584342	1585283	KRTAP5-1
ENSG00000211721	ENSG00000211721.2	7	142450947	142451448	TRBV6-5
ENSG00000211896	ENSG00000211896.7	14	105736343	105743071	IGHG1
ENSG00000211967	ENSG00000211967.3	14	106592676	106593347	IGHV3-53
ENSG00000213281	ENSG00000213281.4	1	114704469	114716894	NRAS
ENSG00000213516	ENSG00000213516.9	1	88979456	88992960	RBMXL1
ENSG00000213928	ENSG00000213928.8	14	24161053	24166565	IRF9
ENSG00000214324	ENSG00000214324.5	3	127193131	127198185	C3orf56
ENSG00000219481	ENSG00000219481.10	1	16562319	16613562	NBPF1
ENSG00000221900	ENSG00000221900.5	7	53035642	53036924	POM121L12
ENSG00000221923	ENSG00000221923.8	19	52369917	52385795	ZNF880
ENSG00000227152	ENSG00000227152.6	1	248436359	248444316	OR2T7
ENSG00000234745	ENSG00000234745.10	6	31269491	31357188	HLA-B
ENSG00000237541	ENSG00000237541.3	6	32741342	32747215	HLA-DQA2
ENSG00000240864	ENSG00000240864.3	2	89099859	89100361	IGKV1-16
ENSG00000241322	ENSG00000241322.10	17	15565483	15619512	CDRT1
ENSG00000243073	ENSG00000243073.3	1	12879224	12886201	PRAMEF4
ENSG00000244482	ENSG00000244482.10	19	54236592	54242791	LILRA6
ENSG00000272514	ENSG00000272514.5	6	87407983	87464465	CFAP206
ENSG00000273976	ENSG00000273976.1	15	23128268	23136822	GOLGA6L1
ENSG00000275113	ENSG00000275113.1	X	49341192	49345922	GAGE2E
ENSG00000276644	ENSG00000276644.4	13	71437966	71867192	DACH1
ENSG00000278662	ENSG00000278662.4	15	82339998	82349475	GOLGA6L10
ENSG00000279804	ENSG00000279804.2	1	13222705	13226106	PRAMEF18
