Chromosome chromStart chromEnd Chromosome.1 chromStart.1 chromEnd.1
chr11 1012821 1036706 chr18 47390 49557
chr17 7661779 7687550 chr14 105736343 105743071
chr20 30377372 30399257 chr6 31268749 31272130
chr3 127193131 127198185 chr7 152134922 152436005
chr7 3301448 4269000 chr20 30377372 30399257
chr6 30676389 30687895 chr10 73423579 73433561
chr1 11106535 11262507 chr16 88453317 88537016
chr1 15847864 15940460 chr14 78170373 79868290
chr13 107163510 107866735 chr19 47608196 47703277
chr1 52345723 52366193 chr22 21009808 21028830
chr1 17755313 17827063 chr14 106592676 106593347
chr1 45694324 45750650 chr3 100749156 100993515
chr13 71437966 71867192 chr17 7661779 7687550
