Validating, ../result/ACC2HIT/UCEC/UCEC-combinations, against Tumor Test samples, /home/sajal/data//maf2dat-moderate/UCEC.maf2dat.matrix.out.test
Num genes = 19889 samples = 127 
Num combinations = 11
    6 combs for sample     0
    2 combs for sample     1
    0 combs for sample     2
    2 combs for sample     3
    4 combs for sample     4
    1 combs for sample     5
    3 combs for sample     6
    3 combs for sample     7
    3 combs for sample     8
    3 combs for sample     9
    2 combs for sample    10
    1 combs for sample    11
    4 combs for sample    12
    3 combs for sample    13
    4 combs for sample    14
    2 combs for sample    15
    1 combs for sample    16
    3 combs for sample    17
    2 combs for sample    18
    2 combs for sample    19
    7 combs for sample    20
    2 combs for sample    21
    6 combs for sample    22
    2 combs for sample    23
    1 combs for sample    24
    3 combs for sample    25
    4 combs for sample    26
    3 combs for sample    27
    4 combs for sample    28
    5 combs for sample    29
    2 combs for sample    30
    2 combs for sample    31
    1 combs for sample    32
    0 combs for sample    33
    6 combs for sample    34
    1 combs for sample    35
    3 combs for sample    36
    4 combs for sample    37
    2 combs for sample    38
    2 combs for sample    39
    2 combs for sample    40
    3 combs for sample    41
    3 combs for sample    42
    2 combs for sample    43
    3 combs for sample    44
    2 combs for sample    45
    2 combs for sample    46
    2 combs for sample    47
    2 combs for sample    48
    4 combs for sample    49
    4 combs for sample    50
    3 combs for sample    51
    2 combs for sample    52
    0 combs for sample    53
    8 combs for sample    54
    2 combs for sample    55
    4 combs for sample    56
    4 combs for sample    57
    4 combs for sample    58
    2 combs for sample    59
    4 combs for sample    60
    4 combs for sample    61
    2 combs for sample    62
    2 combs for sample    63
    4 combs for sample    64
    2 combs for sample    65
    5 combs for sample    66
    3 combs for sample    67
    3 combs for sample    68
    2 combs for sample    69
    2 combs for sample    70
    3 combs for sample    71
    6 combs for sample    72
    5 combs for sample    73
    3 combs for sample    74
    4 combs for sample    75
    3 combs for sample    76
    4 combs for sample    77
    3 combs for sample    78
    3 combs for sample    79
    0 combs for sample    80
    1 combs for sample    81
    4 combs for sample    82
    2 combs for sample    83
    2 combs for sample    84
    0 combs for sample    85
    1 combs for sample    86
    2 combs for sample    87
    3 combs for sample    88
    4 combs for sample    89
    2 combs for sample    90
    2 combs for sample    91
    3 combs for sample    92
    4 combs for sample    93
    0 combs for sample    94
    3 combs for sample    95
    3 combs for sample    96
    4 combs for sample    97
    7 combs for sample    98
    3 combs for sample    99
    2 combs for sample   100
    2 combs for sample   101
    1 combs for sample   102
    2 combs for sample   103
    2 combs for sample   104
    3 combs for sample   105
    3 combs for sample   106
    7 combs for sample   107
    2 combs for sample   108
    1 combs for sample   109
    1 combs for sample   110
    4 combs for sample   111
    8 combs for sample   112
    4 combs for sample   113
    2 combs for sample   114
    2 combs for sample   115
    3 combs for sample   116
    3 combs for sample   117
    2 combs for sample   118
    5 combs for sample   119
    1 combs for sample   120
    3 combs for sample   121
    3 combs for sample   122
    7 combs for sample   123
    6 combs for sample   124
    2 combs for sample   125
    4 combs for sample   126
Percent found 0.952756 
