Validating, ../result/ACC2HIT/KIRP/KIRP-combinations, against Tumor Training samples, /home/sajal/data/maf2dat-moderate//KIRP.maf2dat.matrix.out.training
Num genes = 18117 samples = 172 
Num combinations = 13
    1 combs for sample     0
    1 combs for sample     1
    2 combs for sample     2
    1 combs for sample     3
    2 combs for sample     4
    3 combs for sample     5
    1 combs for sample     6
    2 combs for sample     7
    1 combs for sample     8
    2 combs for sample     9
    2 combs for sample    10
    2 combs for sample    11
    2 combs for sample    12
    3 combs for sample    13
    2 combs for sample    14
    3 combs for sample    15
    3 combs for sample    16
    1 combs for sample    17
    2 combs for sample    18
    4 combs for sample    19
    2 combs for sample    20
    3 combs for sample    21
    2 combs for sample    22
    2 combs for sample    23
    1 combs for sample    24
    2 combs for sample    25
    1 combs for sample    26
    3 combs for sample    27
    2 combs for sample    28
    2 combs for sample    29
    1 combs for sample    30
    1 combs for sample    31
    1 combs for sample    32
    3 combs for sample    33
    2 combs for sample    34
    3 combs for sample    35
    2 combs for sample    36
    1 combs for sample    37
    1 combs for sample    38
    4 combs for sample    39
    2 combs for sample    40
    1 combs for sample    41
    2 combs for sample    42
    1 combs for sample    43
    2 combs for sample    44
    2 combs for sample    45
    2 combs for sample    46
    2 combs for sample    47
    3 combs for sample    48
    2 combs for sample    49
    3 combs for sample    50
    2 combs for sample    51
    3 combs for sample    52
    1 combs for sample    53
    2 combs for sample    54
    1 combs for sample    55
    2 combs for sample    56
    3 combs for sample    57
    2 combs for sample    58
    1 combs for sample    59
    4 combs for sample    60
    1 combs for sample    61
    4 combs for sample    62
    2 combs for sample    63
    2 combs for sample    64
    2 combs for sample    65
    2 combs for sample    66
    1 combs for sample    67
    2 combs for sample    68
    1 combs for sample    69
    2 combs for sample    70
    3 combs for sample    71
    2 combs for sample    72
    3 combs for sample    73
    1 combs for sample    74
    3 combs for sample    75
    3 combs for sample    76
    3 combs for sample    77
    1 combs for sample    78
    2 combs for sample    79
    1 combs for sample    80
    3 combs for sample    81
    3 combs for sample    82
    2 combs for sample    83
    3 combs for sample    84
    2 combs for sample    85
    1 combs for sample    86
    2 combs for sample    87
    3 combs for sample    88
    2 combs for sample    89
    3 combs for sample    90
    1 combs for sample    91
    1 combs for sample    92
    3 combs for sample    93
    2 combs for sample    94
    3 combs for sample    95
    2 combs for sample    96
    2 combs for sample    97
    1 combs for sample    98
    1 combs for sample    99
    1 combs for sample   100
    1 combs for sample   101
    5 combs for sample   102
    3 combs for sample   103
    1 combs for sample   104
    2 combs for sample   105
    1 combs for sample   106
    1 combs for sample   107
    1 combs for sample   108
    3 combs for sample   109
    3 combs for sample   110
    2 combs for sample   111
    1 combs for sample   112
    2 combs for sample   113
    1 combs for sample   114
    3 combs for sample   115
    3 combs for sample   116
    1 combs for sample   117
    4 combs for sample   118
    4 combs for sample   119
    2 combs for sample   120
    2 combs for sample   121
    1 combs for sample   122
    2 combs for sample   123
    2 combs for sample   124
    1 combs for sample   125
    3 combs for sample   126
    1 combs for sample   127
    4 combs for sample   128
    4 combs for sample   129
    4 combs for sample   130
    4 combs for sample   131
    4 combs for sample   132
    2 combs for sample   133
    1 combs for sample   134
    1 combs for sample   135
    5 combs for sample   136
    4 combs for sample   137
    2 combs for sample   138
    2 combs for sample   139
    1 combs for sample   140
    3 combs for sample   141
    2 combs for sample   142
    2 combs for sample   143
    1 combs for sample   144
    5 combs for sample   145
    2 combs for sample   146
    2 combs for sample   147
    2 combs for sample   148
    1 combs for sample   149
    4 combs for sample   150
    4 combs for sample   151
    1 combs for sample   152
    4 combs for sample   153
    1 combs for sample   154
    1 combs for sample   155
    2 combs for sample   156
    1 combs for sample   157
    1 combs for sample   158
    1 combs for sample   159
    1 combs for sample   160
    2 combs for sample   161
    3 combs for sample   162
    1 combs for sample   163
    1 combs for sample   164
    1 combs for sample   165
    2 combs for sample   166
    4 combs for sample   167
    2 combs for sample   168
    3 combs for sample   169
    4 combs for sample   170
    2 combs for sample   171
Percent found 1.000000 
