Tue Apr  3 17:28:15 EDT 2018
Validate Tumor Test: Total 98 Found 93 frac found 0.94898
Validate Normal Test: Total 93 Found 4 Frac found 0.0430108
Validate Tumor All: Total 385 Found 380 frac found 0.987013
Validate Normal All: Total 333 Found 5 Frac found 0.015015
Validate Tumor Training: Total 287 Found 287 frac found 1
Validate Normal Training: Total 240 Found 1 Frac found 0.00416667
F-measure 0.998261
