Num Tumor genes = 27752 tumor samples = 107 
Num normal samples = 331 
ENSG00000205277 ENSG00000184956 ENSG00000149531 1485 2069 3429 F-max =  0.778310 , num excluded 99, tot excluded 99 
ENSG00000158321 ENSG00000205277 ENSG00000104974 1443 1485 3379 F-max =  0.757534 , num excluded 8, tot excluded 107 
Num 2-hit combinations = 2  (beta = 0.100000 )
753.66user 341.02system 18:15.33elapsed 99%CPU (0avgtext+0avgdata 306244maxresident)k
0inputs+8outputs (0major+36269minor)pagefaults 0swaps
