Wed May 30 05:00:45 EDT 2018
Validate Tumor Test: Total 80 Found 76 frac found 0.95
Validate Normal Test: Total 77 Found 6 Frac found 0.0779221
Validate Tumor All: Total 312 Found 308 frac found 0.987179
Validate Normal All: Total 333 Found 7 Frac found 0.021021
Validate Tumor Training: Total 232 Found 232 frac found 1
Validate Normal Training: Total 256 Found 1 Frac found 0.00390625
F-measure 0.997849
