ENSG00000205277,ENSG00000184956,nan,1.0
ENSG00000149531,ENSG00000211896,0.0663832811855013,0.045167564173428904
ENSG00000185567,ENSG00000090512,-0.06029366705519957,0.06891345314195196
ENSG00000170471,ENSG00000205869,0.22307122456150288,9.783692739426299e-12
ENSG00000219481,ENSG00000173213,0.008772770356131096,0.7914500554271355
ENSG00000178104,ENSG00000275113,0.1396880367533195,2.325047374383848e-05
ENSG00000149531,ENSG00000084731,0.020344319128586957,0.5396988648248472
ENSG00000137210,ENSG00000198888,-0.04939347088802549,0.13630457038927515
