ENSG00000184956,ENSG00000173213,nan,1.0
ENSG00000205277,ENSG00000278662,0.31544831524938005,9.5783072809807e-08
ENSG00000205277,ENSG00000149531,0.1966548404941158,0.0010665845514798973
ENSG00000205277,ENSG00000157423,-0.033406420334405496,0.5819076654861259
ENSG00000204525,ENSG00000149531,0.0796523401287981,0.18866362630519007
ENSG00000197915,ENSG00000227152,0.09208558687201383,0.12837238816241336
ENSG00000237541,ENSG00000153391,0.07256433065098744,0.2312125955515719
ENSG00000004455,ENSG00000178199,0.11853130711041152,0.04999727335801023
ENSG00000279804,ENSG00000131951,0.09103951943883029,0.13278591204542986
