ENSG00000184956,ENSG00000173213,nan,1.0
ENSG00000134775,ENSG00000149531,-0.07342156336927415,0.18268475081180408
ENSG00000197915,ENSG00000227152,nan,1.0
ENSG00000169174,ENSG00000145920,-0.07205037703302526,0.19101485709535934
ENSG00000149531,ENSG00000204525,-0.14165376618249237,0.009867465485549298
ENSG00000070413,ENSG00000140795,-0.09899026171711767,0.07208565952704032
ENSG00000197915,ENSG00000204661,-0.15517288448251546,0.004660593491780694
ENSG00000004866,ENSG00000178188,-0.09217520960854837,0.09409075201470027
ENSG00000142798,ENSG00000180767,-0.07017168747664075,0.20287522933930333
ENSG00000159409,ENSG00000137337,-0.07742986009480357,0.15987428305606216
ENSG00000213516,ENSG00000175193,-0.11359399544883596,0.03887254477719673
