ENSG00000205277,ENSG00000149531,-0.03595974761140379,0.5144229766300076
ENSG00000184956,ENSG00000173213,nan,1.0
ENSG00000205277,ENSG00000197978,-0.04371193138281244,0.42798799810326515
ENSG00000145506,ENSG00000205277,-0.03761755485893417,0.49521124938439354
ENSG00000169047,ENSG00000273976,-0.11857206736939603,0.03103041242549352
ENSG00000173662,ENSG00000006377,-0.08939803125353485,0.10447102892084756
