ENSG00000205277,ENSG00000149531,0.04884407056366612,0.47206759905618145
ENSG00000184956,ENSG00000173213,nan,1.0
ENSG00000205277,ENSG00000197978,0.024213430409416495,0.7215951903443927
ENSG00000145506,ENSG00000205277,0.11096744199691362,0.10145664068590672
ENSG00000169047,ENSG00000273976,0.1769912511877462,0.008664932952181072
ENSG00000173662,ENSG00000006377,-0.03891830592524005,0.5667398695711166
