ENSG00000205277,ENSG00000149531,0.001202298191490692,0.9787135071327502
ENSG00000184956,ENSG00000173213,nan,1.0
ENSG00000196126,ENSG00000171862,0.04834035410466311,0.2830856213786736
ENSG00000141510,ENSG00000174501,-0.022305031815386806,0.6205559366173861
ENSG00000171862,ENSG00000211896,0.09953157378090433,0.026805387499212425
ENSG00000079841,ENSG00000205277,0.1042506992672353,0.020346714997562545
ENSG00000205277,ENSG00000278662,0.16801778433809703,0.00017303788795505867
ENSG00000198128,ENSG00000102890,-0.013876171988549398,0.7581130374443716
ENSG00000197887,ENSG00000161031,0.12358994441375112,0.005899532443297249
ENSG00000243073,ENSG00000196460,0.14456338892278578,0.0012590320974764143
