Thu Mar 14 16:42:24 EDT 2019
Validate Tumor Test: Total 3 Found 3 frac found 1
Validate Normal Test: Total 77 Found 1 Frac found 0.012987
Validate Tumor All: Total 9 Found 9 frac found 1
Validate Normal All: Total 333 Found 1 Frac found 0.003003
Validate Tumor Training: Total 6 Found 6 frac found 1
Validate Normal Training: Total 256 Found  Frac found 0
F-measure 1
