Thu Mar 14 16:52:40 EDT 2019
Validate Tumor Test: Total 24 Found 20 frac found 0.833333
Validate Normal Test: Total 77 Found 6 Frac found 0.0779221
Validate Tumor All: Total 73 Found 69 frac found 0.945205
Validate Normal All: Total 333 Found 6 Frac found 0.018018
Validate Tumor Training: Total 49 Found 49 frac found 1
Validate Normal Training: Total 256 Found  Frac found 0
F-measure 1
