Validating, ../result/BLCA/BLCA-combinations, against Tumor Test samples, /home/sajal/data/maf2dat-moderate//BLCA.maf2dat.matrix.out.test
Num genes = 18511 samples = 101 
Num combinations = 21
    5 combs for sample     0
    0 combs for sample     1
    3 combs for sample     2
    1 combs for sample     3
    1 combs for sample     4
    2 combs for sample     5
    1 combs for sample     6
    2 combs for sample     7
    6 combs for sample     8
    0 combs for sample     9
    1 combs for sample    10
    3 combs for sample    11
    4 combs for sample    12
    2 combs for sample    13
    2 combs for sample    14
    2 combs for sample    15
    3 combs for sample    16
    0 combs for sample    17
    1 combs for sample    18
    2 combs for sample    19
    1 combs for sample    20
    1 combs for sample    21
    1 combs for sample    22
    4 combs for sample    23
    1 combs for sample    24
    0 combs for sample    25
    3 combs for sample    26
    2 combs for sample    27
    2 combs for sample    28
    2 combs for sample    29
    2 combs for sample    30
    1 combs for sample    31
    0 combs for sample    32
    2 combs for sample    33
    1 combs for sample    34
    2 combs for sample    35
    3 combs for sample    36
    2 combs for sample    37
    3 combs for sample    38
    2 combs for sample    39
    2 combs for sample    40
    3 combs for sample    41
    0 combs for sample    42
    3 combs for sample    43
    2 combs for sample    44
    2 combs for sample    45
    5 combs for sample    46
    2 combs for sample    47
    1 combs for sample    48
    4 combs for sample    49
    3 combs for sample    50
    2 combs for sample    51
    2 combs for sample    52
    0 combs for sample    53
    2 combs for sample    54
    1 combs for sample    55
    1 combs for sample    56
    2 combs for sample    57
    0 combs for sample    58
    1 combs for sample    59
    2 combs for sample    60
    1 combs for sample    61
    1 combs for sample    62
    2 combs for sample    63
    1 combs for sample    64
    1 combs for sample    65
    3 combs for sample    66
    1 combs for sample    67
    1 combs for sample    68
    2 combs for sample    69
    1 combs for sample    70
    1 combs for sample    71
    1 combs for sample    72
    1 combs for sample    73
    3 combs for sample    74
    1 combs for sample    75
    2 combs for sample    76
    0 combs for sample    77
    1 combs for sample    78
    1 combs for sample    79
    0 combs for sample    80
    1 combs for sample    81
    2 combs for sample    82
    1 combs for sample    83
    1 combs for sample    84
    0 combs for sample    85
    2 combs for sample    86
    0 combs for sample    87
    1 combs for sample    88
    2 combs for sample    89
    1 combs for sample    90
    3 combs for sample    91
    1 combs for sample    92
    2 combs for sample    93
    2 combs for sample    94
    1 combs for sample    95
    2 combs for sample    96
    3 combs for sample    97
    3 combs for sample    98
    2 combs for sample    99
    2 combs for sample   100
Percent found 0.881188 
