Tue Apr  3 18:30:27 EDT 2018
Validate Tumor Test: Total 110 Found 101 frac found 0.918182
Validate Normal Test: Total 93 Found 6 Frac found 0.0645161
Validate Tumor All: Total 470 Found 461 frac found 0.980851
Validate Normal All: Total 333 Found 8 Frac found 0.024024
Validate Tumor Training: Total 360 Found 360 frac found 1
Validate Normal Training: Total 240 Found 2 Frac found 0.00833333
F-measure 0.99723
