Thu Mar 14 15:28:04 EDT 2019
Validate Tumor Test: Total 56 Found 49 frac found 0.875
Validate Normal Test: Total 77 Found 9 Frac found 0.116883
Validate Tumor All: Total 228 Found 221 frac found 0.969298
Validate Normal All: Total 333 Found 9 Frac found 0.027027
Validate Tumor Training: Total 172 Found 172 frac found 1
Validate Normal Training: Total 256 Found 0 Frac found 0
F-measure 1
