                            
Validate Tumor Test: Total 91 Found 80 frac found 0.879121
Validate Normal Test: Total 77 Found 1 Frac found 0.012987
Validate Tumor All: Total 317 Found 306 frac found 0.9653
Validate Normal All: Total 333 Found 1 Frac found 0.003003
Validate Tumor Training: Total 226 Found 226 frac found 1
Validate Normal Training: Total 256 Found 0 Frac found 0
F-measure 1
