Thu Feb 14 19:02:39 EST 2019
Validate Tumor Test: Total 50 Found 47 frac found 0.94
Validate Normal Test: Total 77 Found 2 Frac found 0.025974
Validate Tumor All: Total 149 Found 146 frac found 0.979866
Validate Normal All: Total 333 Found 2 Frac found 0.00600601
Validate Tumor Training: Total 99 Found 99 frac found 1
Validate Normal Training: Total 256 Found 0 Frac found 0
F-measure 1
