Thu Mar 14 15:35:21 EDT 2019
Validate Tumor Test: Total 47 Found 46 frac found 0.978723
Validate Normal Test: Total 77 Found 2 Frac found 0.025974
Validate Tumor All: Total 219 Found 218 frac found 0.995434
Validate Normal All: Total 333 Found 2 Frac found 0.00600601
Validate Tumor Training: Total 172 Found 172 frac found 1
Validate Normal Training: Total 256 Found 0 Frac found 0
F-measure 1
