Validating, ../result/3hit-gpu/THCA-combinations, against Tumor Training samples, /home/sajal/data/maf2dat-moderate//THCA.maf2dat.matrix.out.training
Num genes = 18264 samples = 320 
Num combinations = 16
    4 combs for sample     0
    3 combs for sample     1
    1 combs for sample     2
    3 combs for sample     3
    2 combs for sample     4
    3 combs for sample     5
    1 combs for sample     6
    1 combs for sample     7
    1 combs for sample     8
    1 combs for sample     9
    2 combs for sample    10
    2 combs for sample    11
    1 combs for sample    12
    2 combs for sample    13
    2 combs for sample    14
    1 combs for sample    15
    1 combs for sample    16
    1 combs for sample    17
    1 combs for sample    18
    1 combs for sample    19
    2 combs for sample    20
    2 combs for sample    21
    1 combs for sample    22
    2 combs for sample    23
    2 combs for sample    24
    1 combs for sample    25
    1 combs for sample    26
    3 combs for sample    27
    2 combs for sample    28
    2 combs for sample    29
    1 combs for sample    30
    1 combs for sample    31
    2 combs for sample    32
    3 combs for sample    33
    1 combs for sample    34
    3 combs for sample    35
    1 combs for sample    36
    1 combs for sample    37
    3 combs for sample    38
    1 combs for sample    39
    3 combs for sample    40
    2 combs for sample    41
    1 combs for sample    42
    2 combs for sample    43
    4 combs for sample    44
    3 combs for sample    45
    1 combs for sample    46
    3 combs for sample    47
    2 combs for sample    48
    4 combs for sample    49
    4 combs for sample    50
    1 combs for sample    51
    3 combs for sample    52
    1 combs for sample    53
    5 combs for sample    54
    5 combs for sample    55
    6 combs for sample    56
    1 combs for sample    57
    1 combs for sample    58
    2 combs for sample    59
    4 combs for sample    60
    1 combs for sample    61
    2 combs for sample    62
    1 combs for sample    63
    4 combs for sample    64
    3 combs for sample    65
    2 combs for sample    66
    3 combs for sample    67
    3 combs for sample    68
    1 combs for sample    69
    1 combs for sample    70
    1 combs for sample    71
    2 combs for sample    72
    1 combs for sample    73
    2 combs for sample    74
    4 combs for sample    75
    1 combs for sample    76
    4 combs for sample    77
    1 combs for sample    78
    2 combs for sample    79
    1 combs for sample    80
    1 combs for sample    81
    2 combs for sample    82
    2 combs for sample    83
    3 combs for sample    84
    2 combs for sample    85
    1 combs for sample    86
    3 combs for sample    87
    2 combs for sample    88
    1 combs for sample    89
    6 combs for sample    90
    1 combs for sample    91
    1 combs for sample    92
    2 combs for sample    93
    2 combs for sample    94
    4 combs for sample    95
    3 combs for sample    96
    3 combs for sample    97
    2 combs for sample    98
    3 combs for sample    99
    4 combs for sample   100
    1 combs for sample   101
    3 combs for sample   102
    1 combs for sample   103
    1 combs for sample   104
    3 combs for sample   105
    3 combs for sample   106
    2 combs for sample   107
    1 combs for sample   108
    3 combs for sample   109
    1 combs for sample   110
    1 combs for sample   111
    1 combs for sample   112
    1 combs for sample   113
    3 combs for sample   114
    1 combs for sample   115
    1 combs for sample   116
    1 combs for sample   117
    3 combs for sample   118
    3 combs for sample   119
    1 combs for sample   120
    4 combs for sample   121
    1 combs for sample   122
    1 combs for sample   123
    3 combs for sample   124
    1 combs for sample   125
    3 combs for sample   126
    3 combs for sample   127
    3 combs for sample   128
    2 combs for sample   129
    2 combs for sample   130
    2 combs for sample   131
    1 combs for sample   132
    2 combs for sample   133
    1 combs for sample   134
    1 combs for sample   135
    1 combs for sample   136
    1 combs for sample   137
    3 combs for sample   138
    1 combs for sample   139
    1 combs for sample   140
    1 combs for sample   141
    4 combs for sample   142
    2 combs for sample   143
    1 combs for sample   144
    2 combs for sample   145
    3 combs for sample   146
    4 combs for sample   147
    1 combs for sample   148
    4 combs for sample   149
    3 combs for sample   150
    3 combs for sample   151
    2 combs for sample   152
    2 combs for sample   153
    3 combs for sample   154
    1 combs for sample   155
    3 combs for sample   156
    2 combs for sample   157
    1 combs for sample   158
    2 combs for sample   159
    1 combs for sample   160
    1 combs for sample   161
    1 combs for sample   162
    2 combs for sample   163
    3 combs for sample   164
    3 combs for sample   165
    1 combs for sample   166
    2 combs for sample   167
    3 combs for sample   168
    1 combs for sample   169
    1 combs for sample   170
    4 combs for sample   171
    2 combs for sample   172
    2 combs for sample   173
    3 combs for sample   174
    2 combs for sample   175
    2 combs for sample   176
    2 combs for sample   177
    1 combs for sample   178
    1 combs for sample   179
    2 combs for sample   180
    1 combs for sample   181
    2 combs for sample   182
    2 combs for sample   183
    4 combs for sample   184
    1 combs for sample   185
    1 combs for sample   186
    2 combs for sample   187
    1 combs for sample   188
    1 combs for sample   189
    2 combs for sample   190
    1 combs for sample   191
    2 combs for sample   192
    5 combs for sample   193
    2 combs for sample   194
    2 combs for sample   195
    2 combs for sample   196
    2 combs for sample   197
    2 combs for sample   198
    1 combs for sample   199
    2 combs for sample   200
    1 combs for sample   201
    3 combs for sample   202
    3 combs for sample   203
    1 combs for sample   204
    1 combs for sample   205
    3 combs for sample   206
    2 combs for sample   207
    4 combs for sample   208
    3 combs for sample   209
    1 combs for sample   210
    1 combs for sample   211
    1 combs for sample   212
    1 combs for sample   213
    1 combs for sample   214
    3 combs for sample   215
    1 combs for sample   216
    2 combs for sample   217
    2 combs for sample   218
    1 combs for sample   219
    2 combs for sample   220
    1 combs for sample   221
    1 combs for sample   222
    5 combs for sample   223
    1 combs for sample   224
    1 combs for sample   225
    1 combs for sample   226
    2 combs for sample   227
    1 combs for sample   228
    1 combs for sample   229
    3 combs for sample   230
    4 combs for sample   231
    1 combs for sample   232
    2 combs for sample   233
    3 combs for sample   234
    1 combs for sample   235
    3 combs for sample   236
    3 combs for sample   237
    1 combs for sample   238
    4 combs for sample   239
    1 combs for sample   240
    1 combs for sample   241
    2 combs for sample   242
    2 combs for sample   243
    2 combs for sample   244
    1 combs for sample   245
    1 combs for sample   246
    3 combs for sample   247
    2 combs for sample   248
    1 combs for sample   249
    1 combs for sample   250
    1 combs for sample   251
    1 combs for sample   252
    1 combs for sample   253
    2 combs for sample   254
    3 combs for sample   255
    1 combs for sample   256
    3 combs for sample   257
    1 combs for sample   258
    1 combs for sample   259
    1 combs for sample   260
    1 combs for sample   261
    2 combs for sample   262
    3 combs for sample   263
    3 combs for sample   264
    3 combs for sample   265
    2 combs for sample   266
    2 combs for sample   267
    2 combs for sample   268
    2 combs for sample   269
    2 combs for sample   270
    3 combs for sample   271
    1 combs for sample   272
    2 combs for sample   273
    2 combs for sample   274
    3 combs for sample   275
    2 combs for sample   276
    1 combs for sample   277
    3 combs for sample   278
    1 combs for sample   279
    3 combs for sample   280
    4 combs for sample   281
    3 combs for sample   282
    4 combs for sample   283
    1 combs for sample   284
    4 combs for sample   285
    2 combs for sample   286
    1 combs for sample   287
    3 combs for sample   288
    2 combs for sample   289
    2 combs for sample   290
    3 combs for sample   291
    2 combs for sample   292
    3 combs for sample   293
    2 combs for sample   294
    2 combs for sample   295
    1 combs for sample   296
    3 combs for sample   297
    4 combs for sample   298
    3 combs for sample   299
    2 combs for sample   300
    1 combs for sample   301
    2 combs for sample   302
    1 combs for sample   303
    1 combs for sample   304
    2 combs for sample   305
    1 combs for sample   306
    2 combs for sample   307
    2 combs for sample   308
    2 combs for sample   309
    3 combs for sample   310
    1 combs for sample   311
    1 combs for sample   312
    3 combs for sample   313
    2 combs for sample   314
    1 combs for sample   315
    1 combs for sample   316
    1 combs for sample   317
    5 combs for sample   318
    2 combs for sample   319
Percent found 1.000000 
