Tue Apr 17 04:07:13 EDT 2018
Validate Tumor Test: Total 127 Found 121 frac found 0.952756
Validate Normal Test: Total 86 Found 3 Frac found 0.0348837
Validate Tumor All: Total 495 Found 489 frac found 0.987879
Validate Normal All: Total 333 Found 7 Frac found 0.021021
Validate Tumor Training: Total 368 Found 368 frac found 1
Validate Normal Training: Total 247 Found 4 Frac found 0.0161943
F-measure 0.994595
