ENSG00000184956,ENSG00000173213,0.0,0.586698337292
ENSG00000169862,ENSG00000149531,0.00604229607251,0.482185273159
ENSG00000213516,ENSG00000121067,0.0,0.0736342042755
ENSG00000196187,ENSG00000152086,0.00604229607251,0.0166270783848
ENSG00000100401,ENSG00000008988,0.00604229607251,0.0593824228029
ENSG00000154358,ENSG00000112559,0.00604229607251,0.0451306413302
ENSG00000196539,ENSG00000205445,0.0151057401813,0.0285035629454
ENSG00000196498,ENSG00000159625,0.00906344410876,0.0332541567696
ENSG00000152661,ENSG00000043355,0.0,0.0190023752969
ENSG00000177548,ENSG00000180104,0.00302114803625,0.0190023752969
ENSG00000163283,ENSG00000149531,0.0,0.21377672209
ENSG00000211896,ENSG00000168096,0.00906344410876,0.0878859857482
ENSG00000198502,ENSG00000197595,0.0,0.0261282660333
ENSG00000134545,ENSG00000185519,0.0,0.0142517814727
ENSG00000204442,ENSG00000221923,0.00604229607251,0.0285035629454
ENSG00000116721,ENSG00000142546,0.0,0.00950118764846
ENSG00000187545,ENSG00000227152,0.0,0.0403800475059
ENSG00000143226,ENSG00000099889,0.0,0.00475059382423
ENSG00000198128,ENSG00000162009,0.0,0.0142517814727
ENSG00000211896,ENSG00000135341,0.00604229607251,0.061757719715
